<svg width="32" height="32" viewBox="0 0 32 32" fill="none" xmlns="http://www.w3.org/2000/svg">
<path d="M16 32C24.8366 32 32 24.8366 32 16C32 7.16344 24.8366 0 16 0C7.16344 0 0 7.16344 0 16C0 24.8366 7.16344 32 16 32Z" fill="#EDFFFB"/>
<path d="M22.0842 8.91631C22.2165 8.92253 22.3463 8.95489 22.466 9.01153C22.5857 9.06816 22.693 9.14795 22.7818 9.24628C22.8705 9.34462 22.9389 9.45955 22.9829 9.58445C23.027 9.70934 23.0459 9.84173 23.0385 9.97397L22.6655 17.471L20.6719 17.3673L21.0455 9.87031C21.0477 9.7384 21.0766 9.60832 21.1307 9.48797C21.1847 9.36762 21.2626 9.25953 21.3598 9.17027C21.4569 9.08102 21.5712 9.01248 21.6957 8.96881C21.8202 8.92515 21.9523 8.90729 22.0839 8.91631H22.0842Z" fill="#E52A34"/>
<path d="M22.9565 17.7823L20.3398 17.6576L20.7345 9.84927C20.7434 9.67577 20.7865 9.50573 20.8613 9.34893C20.9362 9.19214 21.0412 9.05167 21.1705 8.93561C21.4336 8.70463 21.7762 8.58509 22.1258 8.60227C22.2995 8.61126 22.4696 8.6545 22.6265 8.7295C22.7833 8.8045 22.9238 8.90977 23.0398 9.03927C23.2708 9.30234 23.3904 9.64496 23.3732 9.99461L22.9565 17.7823ZM20.9835 17.0553L22.3542 17.1176L22.7278 9.93227C22.7373 9.7508 22.6752 9.57287 22.5548 9.43673C22.4344 9.30059 22.2654 9.21713 22.0842 9.20427C21.9001 9.20255 21.7219 9.26918 21.5842 9.39127C21.4483 9.51431 21.3662 9.6859 21.3558 9.86894L20.9835 17.0553Z" fill="#2F80ED"/>
<path d="M22.1065 18.4263L22.1482 17.4296L20.6515 17.3463L20.3398 23.3479C20.6016 23.3617 20.8636 23.3236 21.1107 23.2361C21.3578 23.1485 21.5852 23.0131 21.78 22.8376C21.9748 22.6622 22.1331 22.45 22.2458 22.2133C22.3586 21.9767 22.4236 21.7201 22.4372 21.4583L22.5618 18.9663C22.5681 18.9008 22.5612 18.8347 22.5416 18.7719C22.522 18.7091 22.4901 18.6509 22.4477 18.6006C22.4053 18.5503 22.3532 18.509 22.2947 18.479C22.2361 18.4491 22.1721 18.4312 22.1065 18.4263Z" fill="#34BFA3"/>
<path d="M20.4432 23.6803H20.3185L20.0068 23.6596L20.3402 17.0349L22.4585 17.1389L22.3962 18.1979C22.4951 18.2357 22.5815 18.3005 22.6455 18.3849C22.718 18.4625 22.7739 18.5541 22.8096 18.6541C22.8453 18.7541 22.8601 18.8603 22.8532 18.9663L22.7285 21.4583C22.7123 22.0532 22.4644 22.6184 22.0378 23.0334C21.6111 23.4484 21.0394 23.6805 20.4442 23.6803H20.4432ZM20.9432 17.6786L20.6732 23.0366C21.0644 22.9821 21.424 22.7921 21.6897 22.4998C21.9553 22.2074 22.11 21.8312 22.1268 21.4366L22.2515 18.9446C22.2462 18.8945 22.2312 18.8459 22.2072 18.8016C22.1931 18.7817 22.1744 18.7656 22.1527 18.7548C22.1309 18.7439 22.1068 18.7386 22.0825 18.7393L21.7708 18.7186L21.8125 17.7219L20.9432 17.6786Z" fill="#2F80ED"/>
<path d="M21.5232 14.8956C21.4895 14.8958 21.4562 14.8885 21.4256 14.8744C21.395 14.8603 21.3678 14.8396 21.346 14.8139C21.3243 14.7882 21.3084 14.758 21.2996 14.7254C21.2907 14.6929 21.2891 14.6588 21.2949 14.6256L21.3779 13.1303C21.3834 13.064 21.415 13.0026 21.4658 12.9596C21.5166 12.9166 21.5824 12.8956 21.6487 12.9011C21.715 12.9066 21.7764 12.9383 21.8194 12.9891C21.8624 13.0399 21.8834 13.1056 21.8779 13.1719L21.7949 14.6673C21.788 14.7331 21.7559 14.7937 21.7052 14.8363C21.6545 14.8789 21.5893 14.9002 21.5232 14.8956V14.8956Z" fill="white"/>
<path d="M20.776 15.1036L22.7697 15.2076L22.728 16.2043L20.7344 16.1003L20.776 15.1036Z" fill="#2F80ED"/>
<path d="M19.0523 8.76962L17.4523 10.7216L17.473 13.1513L17.4116 13.3383L19.26 11.0746C19.5127 10.7313 19.6311 10.3074 19.5929 9.88277C19.5546 9.45817 19.3623 9.06223 19.0523 8.76962Z" fill="#34BFA3"/>
<path d="M16.4976 14.9373L17.1622 13.089L17.1416 10.597L19.0102 8.31262L19.2596 8.49962C19.6434 8.84095 19.8814 9.31676 19.9242 9.82862C19.9741 10.3387 19.8335 10.8493 19.5296 11.262L16.4976 14.9373ZM17.7642 10.8253L17.7849 12.383L19.0309 10.867C19.2401 10.587 19.3365 10.2386 19.3009 9.89095C19.2821 9.65368 19.2036 9.42502 19.0726 9.22629L17.7642 10.8253Z" fill="#2F80ED"/>
<path d="M15.9784 12.84L11.1604 18.281C10.804 18.113 10.3995 18.0771 10.0191 18.1798C9.63871 18.2825 9.3072 18.5171 9.08376 18.8416C8.88352 19.1599 8.81078 19.5421 8.88005 19.9117C8.94932 20.2813 9.15552 20.6111 9.45742 20.8353C9.78178 21.0577 10.1783 21.1492 10.5673 21.0914C10.9563 21.0336 11.3091 20.8308 11.5548 20.5236L12.6348 19.2153L13.4034 19.84C13.4133 19.8526 13.4259 19.863 13.4402 19.8702C13.4546 19.8774 13.4704 19.8813 13.4864 19.8816C13.5389 19.9053 13.5985 19.9077 13.6527 19.8883C13.707 19.8689 13.7515 19.8292 13.7771 19.7776C13.8092 19.7278 13.8207 19.6673 13.8091 19.6092C13.7974 19.551 13.7636 19.4996 13.7148 19.466L12.9464 18.8223L16.0201 15.0633L15.9784 12.84Z" fill="#34BFA3"/>
<path d="M10.3296 21.417C9.9501 21.4216 9.57904 21.3048 9.27062 21.0836C8.90239 20.8107 8.65075 20.4088 8.56603 19.9583C8.4813 19.5079 8.56972 19.042 8.81362 18.654C9.0546 18.2955 9.40666 18.0262 9.81565 17.8874C10.2246 17.7486 10.6679 17.7479 11.0773 17.8856L15.7493 12.6116L15.9776 12.8193H16.2893L16.31 15.1453L13.361 18.7586L13.901 19.1946C14.0034 19.2775 14.0724 19.3946 14.0953 19.5243C14.1182 19.6541 14.0935 19.7877 14.0256 19.9006C13.9637 20.0155 13.8622 20.104 13.74 20.1499C13.6178 20.1957 13.4832 20.1957 13.361 20.15C13.2985 20.128 13.2416 20.0926 13.1943 20.0463L12.6556 19.6116L11.7826 20.69C11.615 20.9173 11.396 21.1017 11.1435 21.228C10.8909 21.3544 10.612 21.4191 10.3296 21.417V21.417ZM10.4543 18.4266C10.2338 18.4225 10.0157 18.4736 9.81989 18.5751C9.62408 18.6766 9.45671 18.8254 9.33295 19.008C9.17665 19.2601 9.11983 19.5615 9.17356 19.8533C9.2273 20.145 9.38774 20.4064 9.62362 20.5863C9.88174 20.7594 10.1953 20.8298 10.5026 20.7837C10.81 20.7376 11.089 20.5782 11.285 20.337L15.6876 14.9583L15.667 13.65L11.2226 18.6756L11.015 18.5716C10.8456 18.471 10.6512 18.4206 10.4543 18.4263V18.4266Z" fill="#2F80ED"/>
<path d="M17.4321 13.4006C17.5216 13.3841 17.6066 13.3487 17.6814 13.2966C17.7368 13.216 17.7724 13.1235 17.7854 13.0266L17.7227 8.2713C16.8921 8.29197 15.9367 9.0813 15.9367 9.91197L15.9784 12.8403L16.0824 19.922L15.0857 19.9426C15.0261 19.9413 14.968 19.9616 14.9222 19.9998C14.8763 20.038 14.8459 20.0914 14.8364 20.1503C14.8244 20.2081 14.8349 20.2683 14.8659 20.3185C14.8969 20.3687 14.946 20.4052 15.0031 20.4203C15.0237 20.4203 15.0654 20.441 15.0861 20.441L16.0827 20.4203L16.1034 22.1233C16.0958 22.3312 16.1316 22.5384 16.2083 22.7317C16.285 22.9251 16.401 23.1004 16.549 23.2466C16.697 23.3928 16.8737 23.5066 17.068 23.581C17.2623 23.6553 17.4699 23.6884 17.6777 23.6783C17.8854 23.6682 18.0889 23.6151 18.275 23.5223C18.4612 23.4295 18.626 23.299 18.7592 23.1392C18.8923 22.9793 18.9908 22.7936 19.0483 22.5937C19.1059 22.3938 19.1214 22.1841 19.0937 21.978C19.0199 21.6545 18.8526 21.3599 18.6125 21.131C18.3724 20.902 18.0703 20.7487 17.7437 20.6903L17.4321 13.4006Z" fill="#34BFA3"/>
<path d="M17.5985 23.971H17.5362C17.066 23.9395 16.625 23.7316 16.3015 23.3889C15.978 23.0462 15.796 22.5939 15.7918 22.1226L15.7712 20.752H15.0855C15.0225 20.7554 14.9593 20.7484 14.8985 20.7313C14.7746 20.6872 14.6699 20.6013 14.6024 20.4884C14.5348 20.3755 14.5087 20.2426 14.5284 20.1126C14.5481 19.9825 14.6124 19.8634 14.7104 19.7756C14.8083 19.6877 14.9337 19.6367 15.0652 19.6313H15.7502L15.6268 9.93262C15.6048 8.89296 16.7678 7.98029 17.7228 7.95963H18.0345L18.0968 13.0263C18.0912 13.209 18.0255 13.3847 17.9098 13.5263C17.8651 13.5658 17.8164 13.6007 17.7645 13.6303L18.0345 20.442C18.3758 20.5392 18.6839 20.728 18.9255 20.9879C19.1672 21.2478 19.333 21.5688 19.4052 21.9163C19.4371 22.1772 19.4129 22.4419 19.334 22.6926C19.2552 22.9433 19.1237 23.1743 18.9482 23.37C18.778 23.5595 18.5699 23.711 18.3373 23.8148C18.1047 23.9186 17.8529 23.9722 17.5982 23.9723L17.5985 23.971ZM16.3732 20.233L16.3935 22.123C16.3941 22.4371 16.5149 22.7392 16.7312 22.967C16.9475 23.1949 17.2428 23.3313 17.5565 23.3483C17.7291 23.3587 17.9017 23.3285 18.0604 23.2599C18.2191 23.1913 18.3595 23.0864 18.4702 22.9536C18.587 22.8257 18.6753 22.6743 18.729 22.5096C18.7828 22.3448 18.8008 22.1705 18.7818 21.9983C18.7195 21.479 18.1588 21.0846 17.6818 20.9806L17.4325 20.939L17.1208 13.089H17.4542C17.4577 13.0672 17.4647 13.0462 17.4748 13.0266L17.4125 8.64463C16.8102 8.81129 16.2495 9.41296 16.2495 9.93229L16.3732 20.233Z" fill="#2F80ED"/>
<path d="M16.8089 18.5923C16.7538 18.5923 16.701 18.5704 16.6621 18.5314C16.6231 18.4925 16.6012 18.4397 16.6012 18.3846L16.5806 16.2249C16.5806 16.1977 16.5859 16.1707 16.5964 16.1455C16.6068 16.1203 16.6221 16.0974 16.6414 16.0781C16.6607 16.0588 16.6836 16.0435 16.7088 16.0331C16.734 16.0226 16.761 16.0173 16.7882 16.0173C16.8155 16.0173 16.8425 16.0226 16.8677 16.0331C16.8929 16.0435 16.9158 16.0588 16.9351 16.0781C16.9544 16.0974 16.9697 16.1203 16.9801 16.1455C16.9905 16.1707 16.9959 16.1977 16.9959 16.2249L17.0166 18.3846C17.0094 18.4371 16.9852 18.4859 16.9477 18.5234C16.9102 18.5609 16.8614 18.5851 16.8089 18.5923V18.5923Z" fill="white"/>
<path d="M21.8777 21.8736C21.8196 22.0405 21.7292 22.1942 21.6116 22.326C21.494 22.4579 21.3515 22.5652 21.1924 22.642C21.1679 22.6517 21.1417 22.6561 21.1154 22.6549C21.0891 22.6538 21.0634 22.6471 21.0399 22.6354C21.0163 22.6236 20.9955 22.607 20.9789 22.5867C20.9622 22.5663 20.95 22.5427 20.9431 22.5173V22.5173C20.9336 22.476 20.9388 22.4327 20.9578 22.3948C20.9768 22.3569 21.0083 22.3268 21.0471 22.3096C21.1636 22.2543 21.2679 22.1761 21.3538 22.0798C21.4396 21.9836 21.5054 21.8711 21.5471 21.749C21.5642 21.7098 21.593 21.6768 21.6296 21.6546C21.6662 21.6324 21.7087 21.6221 21.7514 21.625V21.625C21.7763 21.6327 21.7993 21.6453 21.8192 21.6622C21.8391 21.679 21.8553 21.6997 21.867 21.723C21.8786 21.7463 21.8854 21.7717 21.887 21.7977C21.8885 21.8237 21.8848 21.8498 21.8761 21.8743L21.8777 21.8736Z" fill="white"/>
<path d="M17.9512 22.4966C17.9066 22.5448 17.8521 22.5827 17.7914 22.6078C17.7308 22.6329 17.6654 22.6445 17.5998 22.642C17.4747 22.6317 17.358 22.5748 17.2729 22.4825C17.1879 22.3901 17.1406 22.2692 17.1406 22.1436C17.1406 22.0181 17.1879 21.8971 17.2729 21.8048C17.358 21.7125 17.4747 21.6555 17.5998 21.6453C17.6658 21.6443 17.7313 21.6565 17.7924 21.6812C17.8535 21.706 17.9091 21.7428 17.9557 21.7894C18.0023 21.8361 18.0391 21.8916 18.0639 21.9527C18.0886 22.0139 18.1009 22.0793 18.0998 22.1453C18.1039 22.2114 18.0926 22.2775 18.0668 22.3385C18.041 22.3994 18.0014 22.4536 17.9512 22.4966Z" fill="#2F80ED"/>
<path d="M10.6619 20.0046C10.6171 20.053 10.5623 20.0911 10.5013 20.1162C10.4404 20.1412 10.3747 20.1528 10.3089 20.15C10.24 20.1556 10.1707 20.1469 10.1054 20.1244C10.04 20.1019 9.98006 20.0662 9.92924 20.0193C9.87843 19.9725 9.83787 19.9157 9.81013 19.8524C9.78239 19.7891 9.76807 19.7207 9.76807 19.6516C9.76807 19.5825 9.78239 19.5142 9.81013 19.4509C9.83787 19.3876 9.87843 19.3308 9.92924 19.2839C9.98006 19.2371 10.04 19.2013 10.1054 19.1789C10.1707 19.1564 10.24 19.1477 10.3089 19.1533C10.3748 19.1523 10.4403 19.1645 10.5014 19.1893C10.5625 19.214 10.6181 19.2508 10.6647 19.2975C10.7114 19.3441 10.7481 19.3996 10.7729 19.4608C10.7977 19.5219 10.8099 19.5874 10.8089 19.6533C10.8093 19.7188 10.7965 19.7836 10.7712 19.844C10.7459 19.9043 10.7088 19.959 10.6619 20.0046V20.0046Z" fill="#2F80ED"/>
</svg>
