<svg width="32" height="32" viewBox="0 0 32 32" fill="none" xmlns="http://www.w3.org/2000/svg">
<path d="M16 32C24.8366 32 32 24.8366 32 16C32 7.16344 24.8366 0 16 0C7.16344 0 0 7.16344 0 16C0 24.8366 7.16344 32 16 32Z" fill="#EDFFFB"/>
<path d="M14.4244 20.6993L13.5547 22.9676C13.5116 23.0828 13.4973 23.2067 13.513 23.3287C13.5287 23.4506 13.5738 23.5669 13.6446 23.6675C13.7154 23.768 13.8096 23.8498 13.9191 23.9057C14.0286 23.9616 14.1501 23.9899 14.273 23.9883L17.997 23.9506C18.1208 23.9505 18.2426 23.92 18.3518 23.8618C18.461 23.8036 18.5543 23.7195 18.6234 23.6168C18.6925 23.5142 18.7353 23.3962 18.7482 23.2731C18.761 23.15 18.7435 23.0257 18.697 22.9109L17.8464 20.7559C17.7913 20.6178 17.6981 20.4982 17.5776 20.4111C17.457 20.324 17.3141 20.2731 17.1657 20.2643L15.162 20.2076C15.0024 20.1988 14.8443 20.2419 14.7113 20.3306C14.5783 20.4192 14.4776 20.5486 14.4244 20.6993V20.6993Z" fill="#34BFA3"/>
<path d="M20.8322 20.2833H10.9079C10.4719 20.2827 10.0539 20.1093 9.7456 19.8011C9.43729 19.4928 9.2638 19.0749 9.26318 18.6389V12.7219C9.26371 12.2859 9.43716 11.8679 9.74548 11.5596C10.0538 11.2512 10.4718 11.0778 10.9079 11.0773H20.8322C21.2682 11.0778 21.6862 11.2512 21.9946 11.5596C22.3029 11.8679 22.4763 12.2859 22.4768 12.7219V18.6389C22.4762 19.0749 22.3027 19.4928 21.9944 19.8011C21.6861 20.1093 21.2682 20.2827 20.8322 20.2833V20.2833Z" fill="#34BFA3"/>
<path d="M19.4524 16.9753H12.5714C12.2204 16.9753 11.8838 16.8359 11.6356 16.5877C11.3875 16.3395 11.248 16.0029 11.248 15.6519V9.75394C11.248 9.40297 11.3875 9.06637 11.6356 8.8182C11.8838 8.57003 12.2204 8.4306 12.5714 8.4306H19.4524C19.8033 8.4306 20.1399 8.57003 20.3881 8.8182C20.6363 9.06637 20.7757 9.40297 20.7757 9.75394V15.6519C20.7757 16.0029 20.6363 16.3395 20.3881 16.5877C20.1399 16.8359 19.8033 16.9753 19.4524 16.9753V16.9753Z" fill="white"/>
<path d="M12.4581 11.6823C12.4158 11.6825 12.3739 11.6744 12.3348 11.6583C12.2957 11.6423 12.2601 11.6186 12.2302 11.5887C12.2004 11.5588 12.1767 11.5233 12.1606 11.4842C12.1446 11.4451 12.1365 11.4032 12.1367 11.3609V10.7369C12.1393 10.3617 12.2894 10.0026 12.5547 9.73728C12.8201 9.47196 13.1792 9.32178 13.5544 9.31925H14.5564C14.5987 9.31899 14.6406 9.32712 14.6797 9.34317C14.7188 9.35922 14.7543 9.38288 14.7842 9.41278C14.8141 9.44267 14.8378 9.4782 14.8538 9.5173C14.8699 9.55641 14.878 9.59831 14.8777 9.64058V9.64058C14.878 9.68286 14.8699 9.72476 14.8538 9.76387C14.8378 9.80297 14.8141 9.8385 14.7842 9.86839C14.7543 9.89829 14.7188 9.92194 14.6797 9.938C14.6406 9.95405 14.5987 9.96218 14.5564 9.96192H13.5544C13.3443 9.96349 13.1432 10.0476 12.9947 10.1962C12.8461 10.3448 12.762 10.5458 12.7604 10.7559V11.3796C12.7626 11.4199 12.7562 11.4601 12.7418 11.4978C12.7274 11.5355 12.7052 11.5697 12.6766 11.5982C12.6481 11.6267 12.6139 11.6489 12.5763 11.6633C12.5386 11.6777 12.4983 11.6841 12.4581 11.6819V11.6823Z" fill="white"/>
<path d="M21.2669 20.5673H10.4729C10.2764 20.5685 10.0817 20.5307 9.89992 20.4561C9.71818 20.3815 9.55306 20.2716 9.41415 20.1326C9.27523 19.9937 9.16528 19.8286 9.09067 19.6469C9.01606 19.4651 8.97828 19.2704 8.97952 19.0739V12.0793C8.97828 11.8828 9.01606 11.6881 9.09067 11.5063C9.16528 11.3246 9.27523 11.1595 9.41415 11.0206C9.55306 10.8816 9.71818 10.7717 9.89992 10.6971C10.0817 10.6225 10.2764 10.5847 10.4729 10.5859H11.2479V11.1526H10.4729C10.2272 11.153 9.99178 11.2508 9.81809 11.4245C9.6444 11.5982 9.54663 11.8336 9.54619 12.0793V19.0736C9.54672 19.3191 9.64448 19.5544 9.81809 19.728C9.9917 19.9016 10.227 19.9994 10.4725 19.9999H21.2669C21.5124 19.9994 21.7477 19.9016 21.9213 19.728C22.0949 19.5544 22.1927 19.3191 22.1932 19.0736V12.0793C22.1927 11.8337 22.095 11.5983 21.9214 11.4246C21.7478 11.2509 21.5124 11.1531 21.2669 11.1526H20.5485V10.5859H21.2669C21.4633 10.5847 21.6581 10.6225 21.8398 10.6971C22.0215 10.7717 22.1867 10.8816 22.3256 11.0206C22.4645 11.1595 22.5744 11.3246 22.649 11.5063C22.7236 11.6881 22.7614 11.8828 22.7602 12.0793V19.0736C22.7614 19.2701 22.7236 19.4648 22.649 19.6465C22.5744 19.8283 22.4645 19.9934 22.3256 20.1323C22.1867 20.2712 22.0215 20.3812 21.8398 20.4558C21.6581 20.5304 21.4633 20.5682 21.2669 20.5669V20.5673Z" fill="#2F80ED"/>
<path d="M20.1513 19.3383H10.8513C10.809 19.3386 10.767 19.3305 10.7278 19.3145C10.6886 19.2985 10.653 19.2749 10.6231 19.245C10.5931 19.2151 10.5694 19.1795 10.5533 19.1404C10.5372 19.1012 10.529 19.0592 10.5293 19.0169V19.0169C10.529 18.9746 10.5372 18.9327 10.5532 18.8936C10.5693 18.8545 10.5929 18.819 10.6228 18.7891C10.6527 18.7592 10.6882 18.7356 10.7274 18.7195C10.7665 18.7035 10.8084 18.6953 10.8506 18.6956H20.1506C20.3577 18.6944 20.5586 18.6252 20.7225 18.4987C20.8864 18.3723 21.0042 18.1955 21.058 17.9956C21.0715 17.9252 21.1095 17.8619 21.1653 17.817C21.2211 17.7721 21.291 17.7484 21.3626 17.7503C21.4112 17.7495 21.4592 17.7602 21.5029 17.7814C21.5466 17.8026 21.5847 17.8338 21.6141 17.8724C21.6435 17.911 21.6634 17.956 21.6723 18.0038C21.6811 18.0515 21.6786 18.1007 21.665 18.1473C21.585 18.4877 21.3918 18.7909 21.1171 19.0072C20.8423 19.2236 20.5023 19.3403 20.1526 19.3383H20.1513Z" fill="white"/>
<path d="M17.94 24.1399H14.2347C14.0833 24.1397 13.9342 24.1035 13.7995 24.0345C13.6648 23.9655 13.5483 23.8656 13.4597 23.7429C13.373 23.6175 13.316 23.4741 13.2929 23.3234C13.2698 23.1728 13.2812 23.0188 13.3263 22.8733L14.3103 20.0189H17.8644L18.8474 22.8733C18.8959 23.0175 18.9095 23.1712 18.887 23.3216C18.8644 23.4721 18.8065 23.6151 18.7179 23.7388C18.6293 23.8625 18.5125 23.9634 18.3773 24.0331C18.2421 24.1029 18.0922 24.1395 17.94 24.1399ZM14.7263 20.5673L13.8757 23.0436C13.8571 23.1038 13.8526 23.1675 13.8624 23.2298C13.8723 23.2921 13.8962 23.3513 13.9323 23.4029C13.9698 23.4534 14.0182 23.4949 14.0738 23.5243C14.1294 23.5537 14.1908 23.5703 14.2537 23.5729H17.9587C18.0222 23.5739 18.085 23.5588 18.1411 23.5291C18.1973 23.4994 18.2451 23.456 18.28 23.4029C18.3176 23.352 18.3423 23.2927 18.3522 23.2302C18.362 23.1676 18.3567 23.1036 18.3367 23.0436L17.486 20.5673H14.7263Z" fill="#2F80ED"/>
<path d="M16.6544 23.1189H15.6714C15.6292 23.1192 15.5873 23.1111 15.5482 23.095C15.509 23.079 15.4735 23.0553 15.4436 23.0254C15.4137 22.9955 15.3901 22.96 15.374 22.9209C15.358 22.8818 15.3498 22.8399 15.3501 22.7976C15.3498 22.7553 15.358 22.7134 15.374 22.6743C15.3901 22.6352 15.4137 22.5997 15.4436 22.5698C15.4735 22.5399 15.509 22.5162 15.5482 22.5002C15.5873 22.4841 15.6292 22.476 15.6714 22.4763H16.5978C16.6794 22.446 16.7474 22.3872 16.7891 22.3107C16.8308 22.2343 16.8435 22.1453 16.8248 22.0603V22.0603C16.8154 22.0342 16.8114 22.0064 16.813 21.9788C16.8147 21.9511 16.822 21.924 16.8345 21.8992C16.8469 21.8745 16.8643 21.8525 16.8856 21.8347C16.9069 21.8169 16.9315 21.8036 16.9581 21.7956L17.1661 21.7199C17.1922 21.7105 17.2199 21.7065 17.2476 21.7082C17.2753 21.7099 17.3024 21.7172 17.3271 21.7296C17.3519 21.7421 17.3739 21.7595 17.3917 21.7808C17.4095 21.802 17.4228 21.8267 17.4308 21.8533V21.8533C17.4711 21.9875 17.4826 22.1287 17.4646 22.2677C17.4467 22.4067 17.3996 22.5403 17.3264 22.6599C17.2533 22.7794 17.1557 22.8822 17.0402 22.9614C16.9246 23.0407 16.7936 23.0947 16.6558 23.1199L16.6544 23.1189Z" fill="white"/>
<path d="M20.851 17.2589H10.9644V9.67827C10.9664 9.2678 11.1303 8.87472 11.4206 8.58448C11.7108 8.29423 12.1039 8.13028 12.5144 8.12827H19.301C19.7115 8.13028 20.1046 8.29423 20.3948 8.58448C20.6851 8.87472 20.849 9.2678 20.851 9.67827V17.2589ZM11.531 16.6916H20.284V9.67827C20.2851 9.54886 20.2604 9.42054 20.2114 9.30078C20.1624 9.18102 20.09 9.07221 19.9985 8.98069C19.907 8.88917 19.7982 8.81677 19.6785 8.76771C19.5587 8.71865 19.4304 8.69391 19.301 8.69493H12.4957C12.3663 8.69391 12.238 8.71864 12.1183 8.76768C11.9986 8.81672 11.8898 8.88909 11.7983 8.98057C11.7068 9.07205 11.6345 9.18083 11.5854 9.30055C11.5364 9.42027 11.5117 9.54856 11.5127 9.67793V16.6916H11.531Z" fill="#2F80ED"/>
<path d="M18.961 13.3456H12.647C12.6048 13.3459 12.5628 13.3378 12.5237 13.3217C12.4846 13.3056 12.4491 13.282 12.4192 13.2521C12.3893 13.2222 12.3657 13.1867 12.3496 13.1476C12.3336 13.1085 12.3254 13.0666 12.3257 13.0243V13.0243C12.3254 12.982 12.3336 12.9401 12.3496 12.901C12.3657 12.8619 12.3893 12.8264 12.4192 12.7965C12.4491 12.7666 12.4846 12.7429 12.5237 12.7269C12.5628 12.7108 12.6048 12.7027 12.647 12.7029H18.961C19.0033 12.7027 19.0452 12.7108 19.0843 12.7269C19.1234 12.7429 19.1589 12.7666 19.1888 12.7965C19.2187 12.8264 19.2424 12.8619 19.2584 12.901C19.2745 12.9401 19.2826 12.982 19.2824 13.0243V13.0243C19.2826 13.0666 19.2745 13.1085 19.2584 13.1476C19.2424 13.1867 19.2187 13.2222 19.1888 13.2521C19.1589 13.282 19.1234 13.3056 19.0843 13.3217C19.0452 13.3378 19.0033 13.3459 18.961 13.3456V13.3456Z" fill="#2F80ED"/>
<path d="M18.961 15.5006H12.647C12.6048 15.5009 12.5628 15.4927 12.5237 15.4767C12.4846 15.4606 12.4491 15.437 12.4192 15.4071C12.3893 15.3772 12.3657 15.3417 12.3496 15.3026C12.3336 15.2635 12.3254 15.2216 12.3257 15.1793V15.1793C12.3254 15.137 12.3336 15.0951 12.3496 15.056C12.3657 15.0169 12.3893 14.9814 12.4192 14.9515C12.4491 14.9216 12.4846 14.8979 12.5237 14.8819C12.5628 14.8658 12.6048 14.8577 12.647 14.8579H18.961C19.0033 14.8577 19.0452 14.8658 19.0843 14.8819C19.1234 14.8979 19.1589 14.9216 19.1888 14.9515C19.2187 14.9814 19.2424 15.0169 19.2584 15.056C19.2745 15.0951 19.2826 15.137 19.2824 15.1793V15.1793C19.2826 15.2216 19.2745 15.2635 19.2584 15.3026C19.2424 15.3417 19.2187 15.3772 19.1888 15.4071C19.1589 15.437 19.1234 15.4606 19.0843 15.4767C19.0452 15.4927 19.0033 15.5009 18.961 15.5006Z" fill="#2F80ED"/>
<path d="M16.1819 10.4156V9.60294C16.1827 9.56548 16.1759 9.52824 16.1619 9.49348C16.1479 9.45871 16.1271 9.42714 16.1006 9.40064C16.0741 9.37414 16.0425 9.35328 16.0077 9.33929C15.973 9.32531 15.9357 9.3185 15.8983 9.31927V9.31927C15.8608 9.3185 15.8236 9.32531 15.7888 9.33929C15.7541 9.35328 15.7225 9.37414 15.696 9.40064C15.6695 9.42714 15.6486 9.45871 15.6346 9.49348C15.6207 9.52824 15.6138 9.56548 15.6146 9.60294V10.4159H14.8023C14.7648 10.4152 14.7276 10.422 14.6928 10.436C14.6581 10.4499 14.6265 10.4708 14.6 10.4973C14.5735 10.5238 14.5526 10.5554 14.5386 10.5901C14.5247 10.6249 14.5178 10.6621 14.5186 10.6996V10.6996C14.5178 10.7371 14.5247 10.7743 14.5386 10.8091C14.5526 10.8438 14.5735 10.8754 14.6 10.9019C14.6265 10.9284 14.6581 10.9493 14.6928 10.9633C14.7276 10.9772 14.7648 10.984 14.8023 10.9833H15.6153V11.7963C15.6145 11.8337 15.6213 11.871 15.6353 11.9057C15.6493 11.9405 15.6701 11.9721 15.6966 11.9986C15.7231 12.0251 15.7547 12.0459 15.7895 12.0599C15.8242 12.0739 15.8615 12.0807 15.8989 12.0799V12.0799C15.9364 12.0807 15.9736 12.0739 16.0084 12.0599C16.0432 12.0459 16.0747 12.0251 16.1012 11.9986C16.1277 11.9721 16.1486 11.9405 16.1626 11.9057C16.1766 11.871 16.1834 11.8337 16.1826 11.7963V10.9826H16.9956C17.0331 10.9834 17.0703 10.9766 17.1051 10.9626C17.1398 10.9486 17.1714 10.9277 17.1979 10.9012C17.2244 10.8747 17.2453 10.8432 17.2593 10.8084C17.2732 10.7736 17.28 10.7364 17.2793 10.6989V10.6989C17.28 10.6615 17.2732 10.6242 17.2593 10.5895C17.2453 10.5547 17.2244 10.5231 17.1979 10.4966C17.1714 10.4701 17.1398 10.4493 17.1051 10.4353C17.0703 10.4213 17.0331 10.4145 16.9956 10.4153L16.1819 10.4156Z" fill="#E52A34"/>
</svg>
